0,4194304,65536,56,148
0,4194304,65536,56,173
0,4194304,65536,56,158
0,4194304,65536,56,149
0,4194304,65536,56,157
0,4194304,65536,56,181
0,4194304,65536,56,153
0,4194304,65536,56,182
0,4194304,65536,56,191
0,4194304,65536,56,189
1,4194304,262144,14,620
1,4194304,262144,14,476
1,4194304,262144,14,445
1,4194304,262144,14,455
1,4194304,262144,14,417
1,4194304,262144,14,602
1,4194304,262144,14,499
1,4194304,262144,14,499
1,4194304,262144,14,660
1,4194304,262144,14,640
2,4194304,524288,81,347
2,4194304,524288,81,426
2,4194304,524288,81,325
2,4194304,524288,81,372
0,4194304,65536,30,184
2,4194304,524288,81,445
0,4194304,65536,30,178
2,4194304,524288,81,296
2,4194304,524288,81,365
0,4194304,65536,30,165
0,4194304,65536,30,178
0,4194304,65536,30,149
0,4194304,65536,30,148
0,4194304,65536,30,-1
0,4194304,65536,30,-1
